Library\Bee\artifacts\mvdfrm\UnityEditor.UI.ref.dll_5DAE2CC8CF4B8C9E.mvfrm
Library\Bee\artifacts\mvdfrm\UnityEngine.UI.ref.dll_1A140323D56DB509.mvfrm
Library\Bee\artifacts\mvdfrm\UnityEditor.Graphs.dll_387306F57205716F.mvfrm
Library\Bee\artifacts\mvdfrm\UnityEditor.CoreModule.dll_560630BEC697643D.mvfrm
Library\Bee\artifacts\mvdfrm\UnityEditor.DeviceSimulatorModule.dll_1218C2641FBCE914.mvfrm
Library\Bee\artifacts\mvdfrm\UnityEditor.DiagnosticsModule.dll_D87CA87D3F7EB662.mvfrm
Library\Bee\artifacts\mvdfrm\UnityEditor.dll_475294FF625C30C8.mvfrm
Library\Bee\artifacts\mvdfrm\UnityEditor.GraphViewModule.dll_302DD41662CBE1F9.mvfrm
Library\Bee\artifacts\mvdfrm\UnityEditor.PackageManagerUIModule.dll_3B7A23947103F759.mvfrm
Library\Bee\artifacts\mvdfrm\UnityEditor.QuickSearchModule.dll_638C298A9855B2BB.mvfrm
Library\Bee\artifacts\mvdfrm\UnityEditor.SceneTemplateModule.dll_EE1A7D3DBD4D669C.mvfrm
Library\Bee\artifacts\mvdfrm\UnityEditor.TextCoreFontEngineModule.dll_A9656E77ABE1ED1B.mvfrm
Library\Bee\artifacts\mvdfrm\UnityEditor.TextCoreTextEngineModule.dll_F14DA4E93B65A639.mvfrm
Library\Bee\artifacts\mvdfrm\UnityEditor.UIBuilderModule.dll_84B68132D5845B2D.mvfrm
Library\Bee\artifacts\mvdfrm\UnityEditor.UIElementsModule.dll_7D3C911329225C59.mvfrm
Library\Bee\artifacts\mvdfrm\UnityEditor.UIElementsSamplesModule.dll_C8D19DD40C0DADA4.mvfrm
Library\Bee\artifacts\mvdfrm\UnityEditor.UIServiceModule.dll_BDA89295BEBBAB47.mvfrm
Library\Bee\artifacts\mvdfrm\UnityEditor.UnityConnectModule.dll_451C9C93B2993173.mvfrm
Library\Bee\artifacts\mvdfrm\UnityEngine.AccessibilityModule.dll_20BFE8D4BDC38E39.mvfrm
Library\Bee\artifacts\mvdfrm\UnityEngine.AIModule.dll_E2237070B9258CF1.mvfrm
Library\Bee\artifacts\mvdfrm\UnityEngine.AndroidJNIModule.dll_FB8579E67241CB2F.mvfrm
Library\Bee\artifacts\mvdfrm\UnityEngine.AnimationModule.dll_FEB3503F3D28B69F.mvfrm
Library\Bee\artifacts\mvdfrm\UnityEngine.ARModule.dll_9B9635741642EBBA.mvfrm
Library\Bee\artifacts\mvdfrm\UnityEngine.AssetBundleModule.dll_A7755C7BFABC67AD.mvfrm
Library\Bee\artifacts\mvdfrm\UnityEngine.AudioModule.dll_35243DE88CA0D7D1.mvfrm
Library\Bee\artifacts\mvdfrm\UnityEngine.ClothModule.dll_9C0C9AE366BDB6B5.mvfrm
Library\Bee\artifacts\mvdfrm\UnityEngine.ClusterInputModule.dll_C4B911A964210439.mvfrm
Library\Bee\artifacts\mvdfrm\UnityEngine.ClusterRendererModule.dll_17C584D58F77F698.mvfrm
Library\Bee\artifacts\mvdfrm\UnityEngine.CoreModule.dll_792704116E9CCF68.mvfrm
Library\Bee\artifacts\mvdfrm\UnityEngine.CrashReportingModule.dll_26F99A9CE62F1400.mvfrm
Library\Bee\artifacts\mvdfrm\UnityEngine.DirectorModule.dll_6D0CEFE60703B785.mvfrm
Library\Bee\artifacts\mvdfrm\UnityEngine.dll_79F6DBD7C0CFBDAD.mvfrm
Library\Bee\artifacts\mvdfrm\UnityEngine.DSPGraphModule.dll_725E514F796488A6.mvfrm
Library\Bee\artifacts\mvdfrm\UnityEngine.GameCenterModule.dll_25D2C4013882BC20.mvfrm
Library\Bee\artifacts\mvdfrm\UnityEngine.GIModule.dll_7A5FB97E54D4750B.mvfrm
Library\Bee\artifacts\mvdfrm\UnityEngine.GridModule.dll_56981FFF86F1655F.mvfrm
Library\Bee\artifacts\mvdfrm\UnityEngine.HotReloadModule.dll_7FFC0E45185BD221.mvfrm
Library\Bee\artifacts\mvdfrm\UnityEngine.ImageConversionModule.dll_83B78286119CAE8C.mvfrm
Library\Bee\artifacts\mvdfrm\UnityEngine.IMGUIModule.dll_6D83DD4F52D26BB2.mvfrm
Library\Bee\artifacts\mvdfrm\UnityEngine.InputLegacyModule.dll_38BA779A92AE1D9E.mvfrm
Library\Bee\artifacts\mvdfrm\UnityEngine.InputModule.dll_9B9A059902D8FC75.mvfrm
Library\Bee\artifacts\mvdfrm\UnityEngine.JSONSerializeModule.dll_80D77210BCFEEEC3.mvfrm
Library\Bee\artifacts\mvdfrm\UnityEngine.LocalizationModule.dll_0305DBFBFB9CF732.mvfrm
Library\Bee\artifacts\mvdfrm\UnityEngine.ParticleSystemModule.dll_7A0BE3E954409F8E.mvfrm
Library\Bee\artifacts\mvdfrm\UnityEngine.PerformanceReportingModule.dll_ACCCCE632ECDCC27.mvfrm
Library\Bee\artifacts\mvdfrm\UnityEngine.Physics2DModule.dll_4B59402FDE25AE34.mvfrm
Library\Bee\artifacts\mvdfrm\UnityEngine.PhysicsModule.dll_BFDECA6D8EA616C2.mvfrm
Library\Bee\artifacts\mvdfrm\UnityEngine.ProfilerModule.dll_9F53291CA05D3E92.mvfrm
Library\Bee\artifacts\mvdfrm\UnityEngine.RuntimeInitializeOnLoadManagerInitializerModule.dll_C4E3AD92EBD586FD.mvfrm
Library\Bee\artifacts\mvdfrm\UnityEngine.ScreenCaptureModule.dll_9ABF1F95D16B1B25.mvfrm
Library\Bee\artifacts\mvdfrm\UnityEngine.SharedInternalsModule.dll_07C8C15B88CAA9DC.mvfrm
Library\Bee\artifacts\mvdfrm\UnityEngine.SpriteMaskModule.dll_0EFF369159F2519A.mvfrm
Library\Bee\artifacts\mvdfrm\UnityEngine.SpriteShapeModule.dll_C0D689D6B05E9FB7.mvfrm
Library\Bee\artifacts\mvdfrm\UnityEngine.StreamingModule.dll_B3483D8F8CB06DDD.mvfrm
Library\Bee\artifacts\mvdfrm\UnityEngine.SubstanceModule.dll_8FF351D8D8036BEB.mvfrm
Library\Bee\artifacts\mvdfrm\UnityEngine.SubsystemsModule.dll_79AC9CF3283A39AD.mvfrm
Library\Bee\artifacts\mvdfrm\UnityEngine.TerrainModule.dll_DA2545DC64645FB0.mvfrm
Library\Bee\artifacts\mvdfrm\UnityEngine.TerrainPhysicsModule.dll_7A868CBC6D839A1B.mvfrm
Library\Bee\artifacts\mvdfrm\UnityEngine.TextCoreFontEngineModule.dll_27C4E9CABEDFABE6.mvfrm
Library\Bee\artifacts\mvdfrm\UnityEngine.TextCoreTextEngineModule.dll_6FAD203C4E636504.mvfrm
Library\Bee\artifacts\mvdfrm\UnityEngine.TextRenderingModule.dll_C3FE91A088A29B1A.mvfrm
Library\Bee\artifacts\mvdfrm\UnityEngine.TilemapModule.dll_7921AD5D7C2140B9.mvfrm
Library\Bee\artifacts\mvdfrm\UnityEngine.TLSModule.dll_A58E4471C621E716.mvfrm
Library\Bee\artifacts\mvdfrm\UnityEngine.UIElementsModule.dll_7DEAFE5B2B6675A4.mvfrm
Library\Bee\artifacts\mvdfrm\UnityEngine.UIElementsNativeModule.dll_85F3D829E27C677B.mvfrm
Library\Bee\artifacts\mvdfrm\UnityEngine.UIModule.dll_DD970E9E156C929D.mvfrm
Library\Bee\artifacts\mvdfrm\UnityEngine.UmbraModule.dll_AFF8EA0119C78344.mvfrm
Library\Bee\artifacts\mvdfrm\UnityEngine.UNETModule.dll_0BCD4BFABBABC4E1.mvfrm
Library\Bee\artifacts\mvdfrm\UnityEngine.UnityAnalyticsCommonModule.dll_480B8BA748B66A85.mvfrm
Library\Bee\artifacts\mvdfrm\UnityEngine.UnityAnalyticsModule.dll_99AB54B30067F18A.mvfrm
Library\Bee\artifacts\mvdfrm\UnityEngine.UnityConnectModule.dll_327C20A2AD21321E.mvfrm
Library\Bee\artifacts\mvdfrm\UnityEngine.UnityCurlModule.dll_31CFF170AD3CA88C.mvfrm
Library\Bee\artifacts\mvdfrm\UnityEngine.UnityTestProtocolModule.dll_849453C6660902FA.mvfrm
Library\Bee\artifacts\mvdfrm\UnityEngine.UnityWebRequestAssetBundleModule.dll_C9DCBABD7BA12BDB.mvfrm
Library\Bee\artifacts\mvdfrm\UnityEngine.UnityWebRequestAudioModule.dll_24C92241B53896BF.mvfrm
Library\Bee\artifacts\mvdfrm\UnityEngine.UnityWebRequestModule.dll_95568A301C91490B.mvfrm
Library\Bee\artifacts\mvdfrm\UnityEngine.UnityWebRequestTextureModule.dll_3E9A4D10304C0A74.mvfrm
Library\Bee\artifacts\mvdfrm\UnityEngine.UnityWebRequestWWWModule.dll_3A6F65983E232170.mvfrm
Library\Bee\artifacts\mvdfrm\UnityEngine.VehiclesModule.dll_E4CFE965812D8720.mvfrm
Library\Bee\artifacts\mvdfrm\UnityEngine.VFXModule.dll_266CDCE09C8F5083.mvfrm
Library\Bee\artifacts\mvdfrm\UnityEngine.VideoModule.dll_5A2DC2534F32F376.mvfrm
Library\Bee\artifacts\mvdfrm\UnityEngine.VirtualTexturingModule.dll_AA808C98BB2AE806.mvfrm
Library\Bee\artifacts\mvdfrm\UnityEngine.VRModule.dll_30693523B7271815.mvfrm
Library\Bee\artifacts\mvdfrm\UnityEngine.WindModule.dll_EF75DF39FFD34DD1.mvfrm
Library\Bee\artifacts\mvdfrm\UnityEngine.XRModule.dll_6327F82840616573.mvfrm
Library\Bee\artifacts\mvdfrm\Unity.Android.Gradle.dll_DA79DA6BBB84CCA5.mvfrm
Library\Bee\artifacts\mvdfrm\Unity.Android.Types.dll_D23034F7EA91CB67.mvfrm
Library\Bee\artifacts\mvdfrm\UnityEditor.Android.Extensions.dll_690E3FA02BF85205.mvfrm
Library\Bee\artifacts\mvdfrm\UnityEditor.iOS.Extensions.Common.dll_3C61394BB91BDC62.mvfrm
Library\Bee\artifacts\mvdfrm\UnityEditor.iOS.Extensions.dll_03D05EA4BFD65023.mvfrm
Library\Bee\artifacts\mvdfrm\UnityEditor.iOS.Extensions.Xcode.dll_374841457E28DC0A.mvfrm
Library\Bee\artifacts\mvdfrm\UnityEditor.WindowsStandalone.Extensions.dll_1E66C905C1352633.mvfrm
Library\Bee\artifacts\mvdfrm\Unity.Plastic.Antlr3.Runtime.dll_F4321119F9E41A95.mvfrm
Library\Bee\artifacts\mvdfrm\Unity.Plastic.Newtonsoft.Json.dll_40C656A841CBCAD0.mvfrm
Library\Bee\artifacts\mvdfrm\Unity.VisualScripting.IonicZip.dll_8CFB37B29E079FDF.mvfrm
Library\Bee\artifacts\mvdfrm\Unity.VisualScripting.YamlDotNet.dll_F6D837094934674D.mvfrm
Library\Bee\artifacts\mvdfrm\Unity.VisualScripting.TextureAssets.dll_8DF6605D0A01C545.mvfrm
Library\Bee\artifacts\mvdfrm\Unity.VisualScripting.Antlr3.Runtime.dll_A8455DEA79FD776C.mvfrm